Single_Cycle_files_correct/tests/test_control.vcd
$date
	Tue Feb 16 00:38:17 2016
$end
$version
	Icarus Verilog
$end
$timescale
	1s
$end
$scope module testbench $end
$var wire 1 ! regToPC $end
$var wire 1 " mul $end
$var wire 1 # loadSign $end
$var wire 1 $ jump $end
$var wire 1 % extOp $end
$var wire 1 & branchZero $end
$var wire 1 ' branch $end
$var wire 1 ( RegWrite $end
$var wire 1 ) RType $end
$var wire 1 * PCtoReg $end
$var wire 1 + MemWrite $end
$var wire 1 , MemToReg $end
$var wire 1 - LHIOp $end
$var wire 2 . DSize [0:1] $end
$var wire 4 / ALUCtrl [0:3] $end
$var reg 6 0 func [0:5] $end
$var reg 16 1 imm16 [0:15] $end
$var reg 26 2 imm26 [0:25] $end
$var reg 32 3 instruction [0:31] $end
$var reg 7 4 opcode [0:6] $end
$var reg 5 5 r1 [0:4] $end
$var reg 5 6 r2 [0:4] $end
$var reg 5 7 rd [0:4] $end
$var reg 5 8 unused [0:4] $end
$scope module CTRL $end
$var wire 1 9 FPRType $end
$var wire 1 - LHIOp $end
$var wire 1 , MemToReg $end
$var wire 1 + MemWrite $end
$var wire 1 * PCtoReg $end
$var wire 1 ) RType $end
$var wire 1 ( RegWrite $end
$var wire 1 : andwire $end
$var wire 1 ' branch $end
$var wire 1 & branchZero $end
$var wire 1 % extOp $end
$var wire 32 ; instruction [0:31] $end
$var wire 1 $ jump $end
$var wire 1 < jumpNotLink $end
$var wire 1 # loadSign $end
$var wire 1 " mul $end
$var wire 1 = orwire $end
$var wire 1 ! regToPC $end
$var wire 1 > seq $end
$var wire 1 ? sge $end
$var wire 1 @ sgt $end
$var wire 1 A sle $end
$var wire 1 B sll $end
$var wire 1 C slt $end
$var wire 1 D sne $end
$var wire 1 E sra $end
$var wire 1 F srl $end
$var wire 1 G sub $end
$var wire 1 H xorwire $end
$var wire 5 I rs2 [0:4] $end
$var wire 5 J rs1 [0:4] $end
$var wire 5 K rd [0:4] $end
$var wire 6 L opcode [0:5] $end
$var wire 26 M imm26 [0:25] $end
$var wire 16 N imm16 [0:15] $end
$var wire 6 O func [0:5] $end
$var wire 5 P fpfunc [0:4] $end
$var wire 2 Q DSize [0:1] $end
$var wire 4 R ALUCtrl [0:3] $end
$upscope $end
$upscope $end
$enddefinitions $end
#0
$dumpvars
bx R
bx Q
bx P
bx O
bx N
bx M
bx L
bx K
bx J
bx I
xH
xG
xF
xE
xD
xC
xB
xA
x@
x?
x>
x=
x<
bx ;
x:
x9
b0 8
bx 7
bx 6
bx 5
bx 4
bx 3
bx 2
bx 1
bx 0
bx /
bx .
x-
x,
x+
x*
x)
x(
x'
x&
x%
x$
x#
x"
x!
$end
#1
b11 7
b10 6
b1 5
b100000 0
b0 4
#2
b0 /
b0 R
1)
1(
0B
0>
0#
0A
0:
0&
0,
0+
0C
0F
0H
0<
0'
1%
0G
0@
0?
0D
0E
0=
0"
0*
0!
0$
09
0-
b0 .
b0 Q
b0 L
b100000 O
b0 P
b1 J
b10 I
b11 K
b1100000100000 N
b1000100001100000100000 M
b1000100001100000100000 3
b1000100001100000100000 ;
#3
b1 /
b1 R
1G
b100010 O
b10 P
b1100000100010 N
b1000100001100000100010 M
b1000100001100000100010 3
b1000100001100000100010 ;
b100010 0
#4
1B
b1001 /
b1001 R
0:
0G
b100 O
b100 P
b1100000000100 N
b1000100001100000000100 M
b1000100001100000000100 3
b1000100001100000000100 ;
b100 0
#5
b1010 /
b1010 R
0B
1F
b110 O
b110 P
b1100000000110 N
b1000100001100000000110 M
b1000100001100000000110 3
b1000100001100000000110 ;
b110 0
#6
b111 /
b111 R
0F
1E
b111 O
b111 P
b1100000000111 N
b1000100001100000000111 M
b1000100001100000000111 3
b1000100001100000000111 ;
b111 0
#7
b0 /
b0 R
0E
b10101 O
b10101 P
b1100000010101 N
b1000100001100000010101 M
b1000100001100000010101 3
b1000100001100000010101 ;
b10101 0
#8
b1101 /
b1101 R
0B
1:
b100100 O
b100 P
b1100000100100 N
b1000100001100000100100 M
b1000100001100000100100 3
b1000100001100000100100 ;
b100100 0
#9
b1110 /
b1110 R
0:
1=
b100101 O
b101 P
b1100000100101 N
b1000100001100000100101 M
b1000100001100000100101 3
b1000100001100000100101 ;
b100101 0
#10
b1111 /
b1111 R
0:
1H
0=
b100110 O
b110 P
b1100000100110 N
b1000100001100000100110 M
b1000100001100000100110 3
b1000100001100000100110 ;
b100110 0
#11
1>
b1011 /
b1011 R
0H
b101000 O
b1000 P
b1100000101000 N
b1000100001100000101000 M
b1000100001100000101000 3
b1000100001100000101000 ;
b101000 0
#12
b1100 /
b1100 R
0>
1D
b101001 O
b1001 P
b1100000101001 N
b1000100001100000101001 M
b1000100001100000101001 3
b1000100001100000101001 ;
b101001 0
#13
b10 /
b10 R
1C
0>
0D
b101010 O
b1010 P
b1100000101010 N
b1000100001100000101010 M
b1000100001100000101010 3
b1000100001100000101010 ;
b101010 0
#14
b100 /
b100 R
0C
1@
b101011 O
b1011 P
b1100000101011 N
b1000100001100000101011 M
b1000100001100000101011 3
b1000100001100000101011 ;
b101011 0
#15
b11 /
b11 R
1A
0>
0@
b101100 O
b1100 P
b1100000101100 N
b1000100001100000101100 M
b1000100001100000101100 3
b1000100001100000101100 ;
b101100 0
#16
b101 /
b101 R
0A
1?
b101101 O
b1101 P
b1100000101101 N
b1000100001100000101101 M
b1000100001100000101101 3
b1000100001100000101101 ;
b101101 0
#17
b0 /
b0 R
1"
0A
0)
0?
19
b1 L
b1110 O
b1110 P
b1100000001110 N
b1000100001100000001110 M
b100001000100001100000001110 3
b100001000100001100000001110 ;
b1110 0
b1 4
#18
b10110 O
b10110 P
b1100000010110 N
b1000100001100000010110 M
b100001000100001100000010110 3
b100001000100001100000010110 ;
b10110 0
#19
0(
1<
0)
0"
1$
09
b10 L
b11001 O
b11001 P
b0 J
b0 I
b1100100011001 N
b1100100011001 M
b1000000000000001100100011001 3
b1000000000000001100100011001 ;
b1100100011001 2
b10 4
#20
1(
1!
0<
1*
b10011 L
b1001100000000000001100100011001 3
b1001100000000000001100100011001 ;
b10011 4
#21
0(
1<
0*
b10010 L
b1001000000000000001100100011001 3
b1001000000000000001100100011001 ;
b10010 4
#22
b0 /
b0 R
1&
0(
1'
0B
0<
0!
0$
b100 L
b100011 O
b11 P
b1 J
b10 I
b0 K
b100011 N
b1000100000000000100011 M
b10000001000100000000000100011 3
b10000001000100000000000100011 ;
b100011 1
b100 4
#23
0&
b101 L
b10100001000100000000000100011 3
b10100001000100000000000100011 ;
b101 4
#24
b0 /
b0 R
0G
1(
0)
0'
0&
b1000 L
b101 I
b1001010000000000100011 M
b100000001001010000000000100011 3
b100000001001010000000000100011 ;
b101 7
b1000 4
#25
0%
b1001 L
b100100001001010000000000100011 3
b100100001001010000000000100011 ;
b1001 4
#26
b1 /
b1 R
1%
1G
b1010 L
b101000001001010000000000100011 3
b101000001001010000000000100011 ;
b1010 4
#27
0%
b1011 L
b101100001001010000000000100011 3
b101100001001010000000000100011 ;
b1011 4
#28
b1001 /
b1001 R
1B
0G
1-
1%
b1111 L
b111100001001010000000000100011 3
b111100001001010000000000100011 ;
b1111 4
#29
b1101 /
b1101 R
1:
0B
0-
b1100 L
b110000001001010000000000100011 3
b110000001001010000000000100011 ;
b1100 4
#30
b1110 /
b1110 R
0:
1=
b1101 L
b110100001001010000000000100011 3
b110100001001010000000000100011 ;
b1101 4
#31
b1111 /
b1111 R
0:
1H
0=
b1110 L
b111000001001010000000000100011 3
b111000001001010000000000100011 ;
b1110 4
#32
1B
1(
0&
0'
0:
b1001 /
b1001 R
0H
b10100 L
b1010000001001010000000000100011 3
b1010000001001010000000000100011 ;
b10100 4
#33
b1010 /
b1010 R
0B
1F
b10110 L
b1011000001001010000000000100011 3
b1011000001001010000000000100011 ;
b10110 4
#34
b111 /
b111 R
0F
1E
b10111 L
b1011100001001010000000000100011 3
b1011100001001010000000000100011 ;
b10111 4
#35
b1011 /
b1011 R
1>
0E
b11000 L
b1100000001001010000000000100011 3
b1100000001001010000000000100011 ;
b11000 4
#36
b1100 /
b1100 R
0>
1D
b11001 L
b1100100001001010000000000100011 3
b1100100001001010000000000100011 ;
b11001 4
#37
b10 /
b10 R
1C
0>
0D
b11010 L
b1101000001001010000000000100011 3
b1101000001001010000000000100011 ;
b11010 4
#38
b100 /
b100 R
0C
1@
b11011 L
b1101100001001010000000000100011 3
b1101100001001010000000000100011 ;
b11011 4
#39
b11 /
b11 R
1A
0>
0@
b11100 L
b1110000001001010000000000100011 3
b1110000001001010000000000100011 ;
b11100 4
#40
b101 /
b101 R
0A
1?
b11101 L
b1110100001001010000000000100011 3
b1110100001001010000000000100011 ;
b11101 4
#41
b0 /
b0 R
1#
1,
0A
0?
b100000 L
b101001 O
b1001 P
b10 I
b101001 N
b1000100000000000101001 M
b10000000001000100000000000101001 3
b10000000001000100000000000101001 ;
b101001 1
b10 7
b100000 4
#42
b1 .
b1 Q
b100001 L
b10000100001000100000000000101001 3
b10000100001000100000000000101001 ;
b100001 4
#43
0#
b11 .
b11 Q
b100011 L
b10001100001000100000000000101001 3
b10001100001000100000000000101001 ;
b100011 4
#44
0#
b0 .
b0 Q
b100100 L
b10010000001000100000000000101001 3
b10010000001000100000000000101001 ;
b100100 4
#45
b1 .
b1 Q
b100101 L
b10010100001000100000000000101001 3
b10010100001000100000000000101001 ;
b100101 4
#46
0(
0,
1+
0#
b0 .
b0 Q
b101000 L
b10100000001000100000000000101001 3
b10100000001000100000000000101001 ;
b101000 4
#47
b1 .
b1 Q
b101001 L
b10100100001000100000000000101001 3
b10100100001000100000000000101001 ;
b101001 4
#48
b11 .
b11 Q
b101011 L
b10101100001000100000000000101001 3
b10101100001000100000000000101001 ;
b101011 4
