Pipeline_files/output_results/fib_output.txt
VCD info: dumpfile dump.vcd opened for output.
clk=0 rst=0 Instruction=xxxxxxxx PC=xxxxxxxx r1=xxxxxxxx r2=xxxxxxxx r3=xxxxxxxx r4=xxxxxxxx r5=xxxxxxxx r6=xxxxxxxx f1=xxxxxxxx f2=xxxxxxxx f3=xxxxxxxx f4=xxxxxxxx f5=xxxxxxxx r29=xxxxxxxx f30=xxxxxxxx r31=xxxxxxxx
clk=1 rst=0 Instruction=8c012000 PC=00000000 r1=00000000 r2=00000000 r3=00000000 r4=00000000 r5=00000000 r6=00000000 f1=00000000 f2=00000000 f3=00000000 f4=00000000 f5=00000000 r29=00000000 f30=00000000 r31=00000000
clk=0 rst=0 Instruction=8c012000 PC=00000000 r1=00000000 r2=00000000 r3=00000000 r4=00000000 r5=00000000 r6=00000000 f1=00000000 f2=00000000 f3=00000000 f4=00000000 f5=00000000 r29=00000000 f30=00000000 r31=00000000
clk=1 rst=0 Instruction=8c012000 PC=00000000 r1=00000000 r2=00000000 r3=00000000 r4=00000000 r5=00000000 r6=00000000 f1=00000000 f2=00000000 f3=00000000 f4=00000000 f5=00000000 r29=00000000 f30=00000000 r31=00000000
clk=0 rst=1 Instruction=8c012000 PC=00000000 r1=00000000 r2=00000000 r3=00000000 r4=00000000 r5=00000000 r6=00000000 f1=00000000 f2=00000000 f3=00000000 f4=00000000 f5=00000000 r29=00000000 f30=00000000 r31=00000000
clk=1 rst=1 Instruction=8c022004 PC=00000004 r1=00000000 r2=00000000 r3=00000000 r4=00000000 r5=00000000 r6=00000000 f1=00000000 f2=00000000 f3=00000000 f4=00000000 f5=00000000 r29=00000000 f30=00000000 r31=00000000
clk=0 rst=1 Instruction=8c022004 PC=00000004 r1=00000000 r2=00000000 r3=00000000 r4=00000000 r5=00000000 r6=00000000 f1=00000000 f2=00000000 f3=00000000 f4=00000000 f5=00000000 r29=00000000 f30=00000000 r31=00000000
clk=1 rst=1 Instruction=00631826 PC=00000008 r1=00000000 r2=00000000 r3=00000000 r4=00000000 r5=00000000 r6=00000000 f1=00000000 f2=00000000 f3=00000000 f4=00000000 f5=00000000 r29=00000000 f30=00000000 r31=00000000
clk=0 rst=1 Instruction=00631826 PC=00000008 r1=00000000 r2=00000000 r3=00000000 r4=00000000 r5=00000000 r6=00000000 f1=00000000 f2=00000000 f3=00000000 f4=00000000 f5=00000000 r29=00000000 f30=00000000 r31=00000000
clk=1 rst=1 Instruction=24630008 PC=0000000c r1=00000000 r2=00000000 r3=00000000 r4=00000000 r5=00000000 r6=00000000 f1=00000000 f2=00000000 f3=00000000 f4=00000000 f5=00000000 r29=00000000 f30=00000000 r31=00000000
clk=0 rst=1 Instruction=24630008 PC=0000000c r1=00000000 r2=00000000 r3=00000000 r4=00000000 r5=00000000 r6=00000000 f1=00000000 f2=00000000 f3=00000000 f4=00000000 f5=00000000 r29=00000000 f30=00000000 r31=00000000
clk=1 rst=1 Instruction=00220821 PC=00000010 r1=00000000 r2=00000000 r3=00000000 r4=00000000 r5=00000000 r6=00000000 f1=00000000 f2=00000000 f3=00000000 f4=00000000 f5=00000000 r29=00000000 f30=00000000 r31=00000000
clk=0 rst=1 Instruction=00220821 PC=00000010 r1=00000000 r2=00000000 r3=00000000 r4=00000000 r5=00000000 r6=00000000 f1=00000000 f2=00000000 f3=00000000 f4=00000000 f5=00000000 r29=00000000 f30=00000000 r31=00000000
clk=1 rst=1 Instruction=ac612000 PC=00000014 r1=00000000 r2=00000000 r3=00000000 r4=00000000 r5=00000000 r6=00000000 f1=00000000 f2=00000000 f3=00000000 f4=00000000 f5=00000000 r29=00000000 f30=00000000 r31=00000000
clk=0 rst=1 Instruction=ac612000 PC=00000014 r1=00000000 r2=00000000 r3=00000000 r4=00000000 r5=00000000 r6=00000000 f1=00000000 f2=00000000 f3=00000000 f4=00000000 f5=00000000 r29=00000000 f30=00000000 r31=00000000
clk=1 rst=1 Instruction=24630004 PC=00000018 r1=00000000 r2=00000001 r3=00000000 r4=00000000 r5=00000000 r6=00000000 f1=00000000 f2=00000000 f3=00000000 f4=00000000 f5=00000000 r29=00000000 f30=00000000 r31=00000000
clk=0 rst=1 Instruction=24630004 PC=00000018 r1=00000000 r2=00000001 r3=00000000 r4=00000000 r5=00000000 r6=00000000 f1=00000000 f2=00000000 f3=00000000 f4=00000000 f5=00000000 r29=00000000 f30=00000000 r31=00000000
clk=1 rst=1 Instruction=00221021 PC=0000001c r1=00000000 r2=00000001 r3=00000000 r4=00000000 r5=00000000 r6=00000000 f1=00000000 f2=00000000 f3=00000000 f4=00000000 f5=00000000 r29=00000000 f30=00000000 r31=00000000
clk=0 rst=1 Instruction=00221021 PC=0000001c r1=00000000 r2=00000001 r3=00000000 r4=00000000 r5=00000000 r6=00000000 f1=00000000 f2=00000000 f3=00000000 f4=00000000 f5=00000000 r29=00000000 f30=00000000 r31=00000000
clk=1 rst=1 Instruction=ac622000 PC=00000020 r1=00000000 r2=00000001 r3=00000008 r4=00000000 r5=00000000 r6=00000000 f1=00000000 f2=00000000 f3=00000000 f4=00000000 f5=00000000 r29=00000000 f30=00000000 r31=00000000
clk=0 rst=1 Instruction=ac622000 PC=00000020 r1=00000000 r2=00000001 r3=00000008 r4=00000000 r5=00000000 r6=00000000 f1=00000000 f2=00000000 f3=00000000 f4=00000000 f5=00000000 r29=00000000 f30=00000000 r31=00000000
writing to mem at 00002008 val 00000001 size  3
clk=1 rst=1 Instruction=24630004 PC=00000024 r1=00000001 r2=00000001 r3=00000008 r4=00000000 r5=00000000 r6=00000000 f1=00000000 f2=00000000 f3=00000000 f4=00000000 f5=00000000 r29=00000000 f30=00000000 r31=00000000
clk=0 rst=1 Instruction=24630004 PC=00000024 r1=00000001 r2=00000001 r3=00000008 r4=00000000 r5=00000000 r6=00000000 f1=00000000 f2=00000000 f3=00000000 f4=00000000 f5=00000000 r29=00000000 f30=00000000 r31=00000000
clk=1 rst=1 Instruction=746400b4 PC=00000028 r1=00000001 r2=00000001 r3=00000008 r4=00000000 r5=00000000 r6=00000000 f1=00000000 f2=00000000 f3=00000000 f4=00000000 f5=00000000 r29=00000000 f30=00000000 r31=00000000
clk=0 rst=1 Instruction=746400b4 PC=00000028 r1=00000001 r2=00000001 r3=00000008 r4=00000000 r5=00000000 r6=00000000 f1=00000000 f2=00000000 f3=00000000 f4=00000000 f5=00000000 r29=00000000 f30=00000000 r31=00000000
clk=1 rst=1 Instruction=1080ffe0 PC=0000002c r1=00000001 r2=00000001 r3=0000000c r4=00000000 r5=00000000 r6=00000000 f1=00000000 f2=00000000 f3=00000000 f4=00000000 f5=00000000 r29=00000000 f30=00000000 r31=00000000
clk=0 rst=1 Instruction=1080ffe0 PC=0000002c r1=00000001 r2=00000001 r3=0000000c r4=00000000 r5=00000000 r6=00000000 f1=00000000 f2=00000000 f3=00000000 f4=00000000 f5=00000000 r29=00000000 f30=00000000 r31=00000000
writing to mem at 0000200c val 00000002 size  3
clk=1 rst=1 Instruction=00000015 PC=00000030 r1=00000001 r2=00000002 r3=0000000c r4=00000000 r5=00000000 r6=00000000 f1=00000000 f2=00000000 f3=00000000 f4=00000000 f5=00000000 r29=00000000 f30=00000000 r31=00000000
clk=0 rst=1 Instruction=00000015 PC=00000030 r1=00000001 r2=00000002 r3=0000000c r4=00000000 r5=00000000 r6=00000000 f1=00000000 f2=00000000 f3=00000000 f4=00000000 f5=00000000 r29=00000000 f30=00000000 r31=00000000
clk=1 rst=1 Instruction=44000300 PC=00000034 r1=00000001 r2=00000002 r3=0000000c r4=00000000 r5=00000000 r6=00000000 f1=00000000 f2=00000000 f3=00000000 f4=00000000 f5=00000000 r29=00000000 f30=00000000 r31=00000000
clk=0 rst=1 Instruction=44000300 PC=00000034 r1=00000001 r2=00000002 r3=0000000c r4=00000000 r5=00000000 r6=00000000 f1=00000000 f2=00000000 f3=00000000 f4=00000000 f5=00000000 r29=00000000 f30=00000000 r31=00000000
clk=1 rst=1 Instruction=00000000 PC=00000038 r1=00000001 r2=00000002 r3=00000010 r4=00000000 r5=00000000 r6=00000000 f1=00000000 f2=00000000 f3=00000000 f4=00000000 f5=00000000 r29=00000000 f30=00000000 r31=00000000
clk=0 rst=1 Instruction=00000000 PC=00000038 r1=00000001 r2=00000002 r3=00000010 r4=00000000 r5=00000000 r6=00000000 f1=00000000 f2=00000000 f3=00000000 f4=00000000 f5=00000000 r29=00000000 f30=00000000 r31=00000000
clk=1 rst=1 Instruction=00220821 PC=00000010 r1=00000001 r2=00000002 r3=00000010 r4=00000000 r5=00000000 r6=00000000 f1=00000000 f2=00000000 f3=00000000 f4=00000000 f5=00000000 r29=00000000 f30=00000000 r31=00000000
clk=0 rst=1 Instruction=00220821 PC=00000010 r1=00000001 r2=00000002 r3=00000010 r4=00000000 r5=00000000 r6=00000000 f1=00000000 f2=00000000 f3=00000000 f4=00000000 f5=00000000 r29=00000000 f30=00000000 r31=00000000
clk=1 rst=1 Instruction=ac612000 PC=00000014 r1=00000001 r2=00000002 r3=00000010 r4=00000000 r5=00000000 r6=00000000 f1=00000000 f2=00000000 f3=00000000 f4=00000000 f5=00000000 r29=00000000 f30=00000000 r31=00000000
clk=0 rst=1 Instruction=ac612000 PC=00000014 r1=00000001 r2=00000002 r3=00000010 r4=00000000 r5=00000000 r6=00000000 f1=00000000 f2=00000000 f3=00000000 f4=00000000 f5=00000000 r29=00000000 f30=00000000 r31=00000000
clk=1 rst=1 Instruction=24630004 PC=00000018 r1=00000001 r2=00000002 r3=00000010 r4=00000000 r5=00000000 r6=00000000 f1=00000000 f2=00000000 f3=00000000 f4=00000000 f5=00000000 r29=00000000 f30=00000000 r31=00000000
clk=0 rst=1 Instruction=24630004 PC=00000018 r1=00000001 r2=00000002 r3=00000010 r4=00000000 r5=00000000 r6=00000000 f1=00000000 f2=00000000 f3=00000000 f4=00000000 f5=00000000 r29=00000000 f30=00000000 r31=00000000
clk=1 rst=1 Instruction=00221021 PC=0000001c r1=00000001 r2=00000002 r3=00000010 r4=00000000 r5=00000000 r6=00000000 f1=00000000 f2=00000000 f3=00000000 f4=00000000 f5=00000000 r29=00000000 f30=00000000 r31=00000000
clk=0 rst=1 Instruction=00221021 PC=0000001c r1=00000001 r2=00000002 r3=00000010 r4=00000000 r5=00000000 r6=00000000 f1=00000000 f2=00000000 f3=00000000 f4=00000000 f5=00000000 r29=00000000 f30=00000000 r31=00000000
clk=1 rst=1 Instruction=ac622000 PC=00000020 r1=00000001 r2=00000002 r3=00000010 r4=00000000 r5=00000000 r6=00000000 f1=00000000 f2=00000000 f3=00000000 f4=00000000 f5=00000000 r29=00000000 f30=00000000 r31=00000000
clk=0 rst=1 Instruction=ac622000 PC=00000020 r1=00000001 r2=00000002 r3=00000010 r4=00000000 r5=00000000 r6=00000000 f1=00000000 f2=00000000 f3=00000000 f4=00000000 f5=00000000 r29=00000000 f30=00000000 r31=00000000
writing to mem at 00002010 val 00000003 size  3
clk=1 rst=1 Instruction=24630004 PC=00000024 r1=00000003 r2=00000002 r3=00000010 r4=00000000 r5=00000000 r6=00000000 f1=00000000 f2=00000000 f3=00000000 f4=00000000 f5=00000000 r29=00000000 f30=00000000 r31=00000000
clk=0 rst=1 Instruction=24630004 PC=00000024 r1=00000003 r2=00000002 r3=00000010 r4=00000000 r5=00000000 r6=00000000 f1=00000000 f2=00000000 f3=00000000 f4=00000000 f5=00000000 r29=00000000 f30=00000000 r31=00000000
clk=1 rst=1 Instruction=746400b4 PC=00000028 r1=00000003 r2=00000002 r3=00000010 r4=00000000 r5=00000000 r6=00000000 f1=00000000 f2=00000000 f3=00000000 f4=00000000 f5=00000000 r29=00000000 f30=00000000 r31=00000000
clk=0 rst=1 Instruction=746400b4 PC=00000028 r1=00000003 r2=00000002 r3=00000010 r4=00000000 r5=00000000 r6=00000000 f1=00000000 f2=00000000 f3=00000000 f4=00000000 f5=00000000 r29=00000000 f30=00000000 r31=00000000
clk=1 rst=1 Instruction=1080ffe0 PC=0000002c r1=00000003 r2=00000002 r3=00000014 r4=00000000 r5=00000000 r6=00000000 f1=00000000 f2=00000000 f3=00000000 f4=00000000 f5=00000000 r29=00000000 f30=00000000 r31=00000000
clk=0 rst=1 Instruction=1080ffe0 PC=0000002c r1=00000003 r2=00000002 r3=00000014 r4=00000000 r5=00000000 r6=00000000 f1=00000000 f2=00000000 f3=00000000 f4=00000000 f5=00000000 r29=00000000 f30=00000000 r31=00000000
writing to mem at 00002014 val 00000005 size  3
clk=1 rst=1 Instruction=00000015 PC=00000030 r1=00000003 r2=00000005 r3=00000014 r4=00000000 r5=00000000 r6=00000000 f1=00000000 f2=00000000 f3=00000000 f4=00000000 f5=00000000 r29=00000000 f30=00000000 r31=00000000
clk=0 rst=1 Instruction=00000015 PC=00000030 r1=00000003 r2=00000005 r3=00000014 r4=00000000 r5=00000000 r6=00000000 f1=00000000 f2=00000000 f3=00000000 f4=00000000 f5=00000000 r29=00000000 f30=00000000 r31=00000000
clk=1 rst=1 Instruction=44000300 PC=00000034 r1=00000003 r2=00000005 r3=00000014 r4=00000000 r5=00000000 r6=00000000 f1=00000000 f2=00000000 f3=00000000 f4=00000000 f5=00000000 r29=00000000 f30=00000000 r31=00000000
clk=0 rst=1 Instruction=44000300 PC=00000034 r1=00000003 r2=00000005 r3=00000014 r4=00000000 r5=00000000 r6=00000000 f1=00000000 f2=00000000 f3=00000000 f4=00000000 f5=00000000 r29=00000000 f30=00000000 r31=00000000
clk=1 rst=1 Instruction=00000000 PC=00000038 r1=00000003 r2=00000005 r3=00000018 r4=00000000 r5=00000000 r6=00000000 f1=00000000 f2=00000000 f3=00000000 f4=00000000 f5=00000000 r29=00000000 f30=00000000 r31=00000000
clk=0 rst=1 Instruction=00000000 PC=00000038 r1=00000003 r2=00000005 r3=00000018 r4=00000000 r5=00000000 r6=00000000 f1=00000000 f2=00000000 f3=00000000 f4=00000000 f5=00000000 r29=00000000 f30=00000000 r31=00000000
clk=1 rst=1 Instruction=00220821 PC=00000010 r1=00000003 r2=00000005 r3=00000018 r4=00000000 r5=00000000 r6=00000000 f1=00000000 f2=00000000 f3=00000000 f4=00000000 f5=00000000 r29=00000000 f30=00000000 r31=00000000
clk=0 rst=1 Instruction=00220821 PC=00000010 r1=00000003 r2=00000005 r3=00000018 r4=00000000 r5=00000000 r6=00000000 f1=00000000 f2=00000000 f3=00000000 f4=00000000 f5=00000000 r29=00000000 f30=00000000 r31=00000000
clk=1 rst=1 Instruction=ac612000 PC=00000014 r1=00000003 r2=00000005 r3=00000018 r4=00000000 r5=00000000 r6=00000000 f1=00000000 f2=00000000 f3=00000000 f4=00000000 f5=00000000 r29=00000000 f30=00000000 r31=00000000
clk=0 rst=1 Instruction=ac612000 PC=00000014 r1=00000003 r2=00000005 r3=00000018 r4=00000000 r5=00000000 r6=00000000 f1=00000000 f2=00000000 f3=00000000 f4=00000000 f5=00000000 r29=00000000 f30=00000000 r31=00000000
clk=1 rst=1 Instruction=24630004 PC=00000018 r1=00000003 r2=00000005 r3=00000018 r4=00000000 r5=00000000 r6=00000000 f1=00000000 f2=00000000 f3=00000000 f4=00000000 f5=00000000 r29=00000000 f30=00000000 r31=00000000
clk=0 rst=1 Instruction=24630004 PC=00000018 r1=00000003 r2=00000005 r3=00000018 r4=00000000 r5=00000000 r6=00000000 f1=00000000 f2=00000000 f3=00000000 f4=00000000 f5=00000000 r29=00000000 f30=00000000 r31=00000000
clk=1 rst=1 Instruction=00221021 PC=0000001c r1=00000003 r2=00000005 r3=00000018 r4=00000000 r5=00000000 r6=00000000 f1=00000000 f2=00000000 f3=00000000 f4=00000000 f5=00000000 r29=00000000 f30=00000000 r31=00000000
clk=0 rst=1 Instruction=00221021 PC=0000001c r1=00000003 r2=00000005 r3=00000018 r4=00000000 r5=00000000 r6=00000000 f1=00000000 f2=00000000 f3=00000000 f4=00000000 f5=00000000 r29=00000000 f30=00000000 r31=00000000
clk=1 rst=1 Instruction=ac622000 PC=00000020 r1=00000003 r2=00000005 r3=00000018 r4=00000000 r5=00000000 r6=00000000 f1=00000000 f2=00000000 f3=00000000 f4=00000000 f5=00000000 r29=00000000 f30=00000000 r31=00000000
clk=0 rst=1 Instruction=ac622000 PC=00000020 r1=00000003 r2=00000005 r3=00000018 r4=00000000 r5=00000000 r6=00000000 f1=00000000 f2=00000000 f3=00000000 f4=00000000 f5=00000000 r29=00000000 f30=00000000 r31=00000000
writing to mem at 00002018 val 00000008 size  3
clk=1 rst=1 Instruction=24630004 PC=00000024 r1=00000008 r2=00000005 r3=00000018 r4=00000000 r5=00000000 r6=00000000 f1=00000000 f2=00000000 f3=00000000 f4=00000000 f5=00000000 r29=00000000 f30=00000000 r31=00000000
clk=0 rst=1 Instruction=24630004 PC=00000024 r1=00000008 r2=00000005 r3=00000018 r4=00000000 r5=00000000 r6=00000000 f1=00000000 f2=00000000 f3=00000000 f4=00000000 f5=00000000 r29=00000000 f30=00000000 r31=00000000
clk=1 rst=1 Instruction=746400b4 PC=00000028 r1=00000008 r2=00000005 r3=00000018 r4=00000000 r5=00000000 r6=00000000 f1=00000000 f2=00000000 f3=00000000 f4=00000000 f5=00000000 r29=00000000 f30=00000000 r31=00000000
clk=0 rst=1 Instruction=746400b4 PC=00000028 r1=00000008 r2=00000005 r3=00000018 r4=00000000 r5=00000000 r6=00000000 f1=00000000 f2=00000000 f3=00000000 f4=00000000 f5=00000000 r29=00000000 f30=00000000 r31=00000000
clk=1 rst=1 Instruction=1080ffe0 PC=0000002c r1=00000008 r2=00000005 r3=0000001c r4=00000000 r5=00000000 r6=00000000 f1=00000000 f2=00000000 f3=00000000 f4=00000000 f5=00000000 r29=00000000 f30=00000000 r31=00000000
clk=0 rst=1 Instruction=1080ffe0 PC=0000002c r1=00000008 r2=00000005 r3=0000001c r4=00000000 r5=00000000 r6=00000000 f1=00000000 f2=00000000 f3=00000000 f4=00000000 f5=00000000 r29=00000000 f30=00000000 r31=00000000
writing to mem at 0000201c val 0000000d size  3
clk=1 rst=1 Instruction=00000015 PC=00000030 r1=00000008 r2=0000000d r3=0000001c r4=00000000 r5=00000000 r6=00000000 f1=00000000 f2=00000000 f3=00000000 f4=00000000 f5=00000000 r29=00000000 f30=00000000 r31=00000000
clk=0 rst=1 Instruction=00000015 PC=00000030 r1=00000008 r2=0000000d r3=0000001c r4=00000000 r5=00000000 r6=00000000 f1=00000000 f2=00000000 f3=00000000 f4=00000000 f5=00000000 r29=00000000 f30=00000000 r31=00000000
clk=1 rst=1 Instruction=44000300 PC=00000034 r1=00000008 r2=0000000d r3=0000001c r4=00000000 r5=00000000 r6=00000000 f1=00000000 f2=00000000 f3=00000000 f4=00000000 f5=00000000 r29=00000000 f30=00000000 r31=00000000
clk=0 rst=1 Instruction=44000300 PC=00000034 r1=00000008 r2=0000000d r3=0000001c r4=00000000 r5=00000000 r6=00000000 f1=00000000 f2=00000000 f3=00000000 f4=00000000 f5=00000000 r29=00000000 f30=00000000 r31=00000000
clk=1 rst=1 Instruction=00000000 PC=00000038 r1=00000008 r2=0000000d r3=00000020 r4=00000000 r5=00000000 r6=00000000 f1=00000000 f2=00000000 f3=00000000 f4=00000000 f5=00000000 r29=00000000 f30=00000000 r31=00000000
clk=0 rst=1 Instruction=00000000 PC=00000038 r1=00000008 r2=0000000d r3=00000020 r4=00000000 r5=00000000 r6=00000000 f1=00000000 f2=00000000 f3=00000000 f4=00000000 f5=00000000 r29=00000000 f30=00000000 r31=00000000
clk=1 rst=1 Instruction=00220821 PC=00000010 r1=00000008 r2=0000000d r3=00000020 r4=00000000 r5=00000000 r6=00000000 f1=00000000 f2=00000000 f3=00000000 f4=00000000 f5=00000000 r29=00000000 f30=00000000 r31=00000000
clk=0 rst=1 Instruction=00220821 PC=00000010 r1=00000008 r2=0000000d r3=00000020 r4=00000000 r5=00000000 r6=00000000 f1=00000000 f2=00000000 f3=00000000 f4=00000000 f5=00000000 r29=00000000 f30=00000000 r31=00000000
clk=1 rst=1 Instruction=ac612000 PC=00000014 r1=00000008 r2=0000000d r3=00000020 r4=00000000 r5=00000000 r6=00000000 f1=00000000 f2=00000000 f3=00000000 f4=00000000 f5=00000000 r29=00000000 f30=00000000 r31=00000000
clk=0 rst=1 Instruction=ac612000 PC=00000014 r1=00000008 r2=0000000d r3=00000020 r4=00000000 r5=00000000 r6=00000000 f1=00000000 f2=00000000 f3=00000000 f4=00000000 f5=00000000 r29=00000000 f30=00000000 r31=00000000
clk=1 rst=1 Instruction=24630004 PC=00000018 r1=00000008 r2=0000000d r3=00000020 r4=00000000 r5=00000000 r6=00000000 f1=00000000 f2=00000000 f3=00000000 f4=00000000 f5=00000000 r29=00000000 f30=00000000 r31=00000000
clk=0 rst=1 Instruction=24630004 PC=00000018 r1=00000008 r2=0000000d r3=00000020 r4=00000000 r5=00000000 r6=00000000 f1=00000000 f2=00000000 f3=00000000 f4=00000000 f5=00000000 r29=00000000 f30=00000000 r31=00000000
clk=1 rst=1 Instruction=00221021 PC=0000001c r1=00000008 r2=0000000d r3=00000020 r4=00000000 r5=00000000 r6=00000000 f1=00000000 f2=00000000 f3=00000000 f4=00000000 f5=00000000 r29=00000000 f30=00000000 r31=00000000
clk=0 rst=1 Instruction=00221021 PC=0000001c r1=00000008 r2=0000000d r3=00000020 r4=00000000 r5=00000000 r6=00000000 f1=00000000 f2=00000000 f3=00000000 f4=00000000 f5=00000000 r29=00000000 f30=00000000 r31=00000000
clk=1 rst=1 Instruction=ac622000 PC=00000020 r1=00000008 r2=0000000d r3=00000020 r4=00000000 r5=00000000 r6=00000000 f1=00000000 f2=00000000 f3=00000000 f4=00000000 f5=00000000 r29=00000000 f30=00000000 r31=00000000
clk=0 rst=1 Instruction=ac622000 PC=00000020 r1=00000008 r2=0000000d r3=00000020 r4=00000000 r5=00000000 r6=00000000 f1=00000000 f2=00000000 f3=00000000 f4=00000000 f5=00000000 r29=00000000 f30=00000000 r31=00000000
writing to mem at 00002020 val 00000015 size  3
clk=1 rst=1 Instruction=24630004 PC=00000024 r1=00000015 r2=0000000d r3=00000020 r4=00000000 r5=00000000 r6=00000000 f1=00000000 f2=00000000 f3=00000000 f4=00000000 f5=00000000 r29=00000000 f30=00000000 r31=00000000
clk=0 rst=1 Instruction=24630004 PC=00000024 r1=00000015 r2=0000000d r3=00000020 r4=00000000 r5=00000000 r6=00000000 f1=00000000 f2=00000000 f3=00000000 f4=00000000 f5=00000000 r29=00000000 f30=00000000 r31=00000000
clk=1 rst=1 Instruction=746400b4 PC=00000028 r1=00000015 r2=0000000d r3=00000020 r4=00000000 r5=00000000 r6=00000000 f1=00000000 f2=00000000 f3=00000000 f4=00000000 f5=00000000 r29=00000000 f30=00000000 r31=00000000
clk=0 rst=1 Instruction=746400b4 PC=00000028 r1=00000015 r2=0000000d r3=00000020 r4=00000000 r5=00000000 r6=00000000 f1=00000000 f2=00000000 f3=00000000 f4=00000000 f5=00000000 r29=00000000 f30=00000000 r31=00000000
clk=1 rst=1 Instruction=1080ffe0 PC=0000002c r1=00000015 r2=0000000d r3=00000024 r4=00000000 r5=00000000 r6=00000000 f1=00000000 f2=00000000 f3=00000000 f4=00000000 f5=00000000 r29=00000000 f30=00000000 r31=00000000
clk=0 rst=1 Instruction=1080ffe0 PC=0000002c r1=00000015 r2=0000000d r3=00000024 r4=00000000 r5=00000000 r6=00000000 f1=00000000 f2=00000000 f3=00000000 f4=00000000 f5=00000000 r29=00000000 f30=00000000 r31=00000000
writing to mem at 00002024 val 00000022 size  3
clk=1 rst=1 Instruction=00000015 PC=00000030 r1=00000015 r2=00000022 r3=00000024 r4=00000000 r5=00000000 r6=00000000 f1=00000000 f2=00000000 f3=00000000 f4=00000000 f5=00000000 r29=00000000 f30=00000000 r31=00000000
clk=0 rst=1 Instruction=00000015 PC=00000030 r1=00000015 r2=00000022 r3=00000024 r4=00000000 r5=00000000 r6=00000000 f1=00000000 f2=00000000 f3=00000000 f4=00000000 f5=00000000 r29=00000000 f30=00000000 r31=00000000
clk=1 rst=1 Instruction=44000300 PC=00000034 r1=00000015 r2=00000022 r3=00000024 r4=00000000 r5=00000000 r6=00000000 f1=00000000 f2=00000000 f3=00000000 f4=00000000 f5=00000000 r29=00000000 f30=00000000 r31=00000000
clk=0 rst=1 Instruction=44000300 PC=00000034 r1=00000015 r2=00000022 r3=00000024 r4=00000000 r5=00000000 r6=00000000 f1=00000000 f2=00000000 f3=00000000 f4=00000000 f5=00000000 r29=00000000 f30=00000000 r31=00000000
clk=1 rst=1 Instruction=00000000 PC=00000038 r1=00000015 r2=00000022 r3=00000028 r4=00000000 r5=00000000 r6=00000000 f1=00000000 f2=00000000 f3=00000000 f4=00000000 f5=00000000 r29=00000000 f30=00000000 r31=00000000
clk=0 rst=1 Instruction=00000000 PC=00000038 r1=00000015 r2=00000022 r3=00000028 r4=00000000 r5=00000000 r6=00000000 f1=00000000 f2=00000000 f3=00000000 f4=00000000 f5=00000000 r29=00000000 f30=00000000 r31=00000000
clk=1 rst=1 Instruction=00220821 PC=00000010 r1=00000015 r2=00000022 r3=00000028 r4=00000000 r5=00000000 r6=00000000 f1=00000000 f2=00000000 f3=00000000 f4=00000000 f5=00000000 r29=00000000 f30=00000000 r31=00000000
clk=0 rst=1 Instruction=00220821 PC=00000010 r1=00000015 r2=00000022 r3=00000028 r4=00000000 r5=00000000 r6=00000000 f1=00000000 f2=00000000 f3=00000000 f4=00000000 f5=00000000 r29=00000000 f30=00000000 r31=00000000
clk=1 rst=1 Instruction=ac612000 PC=00000014 r1=00000015 r2=00000022 r3=00000028 r4=00000000 r5=00000000 r6=00000000 f1=00000000 f2=00000000 f3=00000000 f4=00000000 f5=00000000 r29=00000000 f30=00000000 r31=00000000
clk=0 rst=1 Instruction=ac612000 PC=00000014 r1=00000015 r2=00000022 r3=00000028 r4=00000000 r5=00000000 r6=00000000 f1=00000000 f2=00000000 f3=00000000 f4=00000000 f5=00000000 r29=00000000 f30=00000000 r31=00000000
clk=1 rst=1 Instruction=24630004 PC=00000018 r1=00000015 r2=00000022 r3=00000028 r4=00000000 r5=00000000 r6=00000000 f1=00000000 f2=00000000 f3=00000000 f4=00000000 f5=00000000 r29=00000000 f30=00000000 r31=00000000
clk=0 rst=1 Instruction=24630004 PC=00000018 r1=00000015 r2=00000022 r3=00000028 r4=00000000 r5=00000000 r6=00000000 f1=00000000 f2=00000000 f3=00000000 f4=00000000 f5=00000000 r29=00000000 f30=00000000 r31=00000000
clk=1 rst=1 Instruction=00221021 PC=0000001c r1=00000015 r2=00000022 r3=00000028 r4=00000000 r5=00000000 r6=00000000 f1=00000000 f2=00000000 f3=00000000 f4=00000000 f5=00000000 r29=00000000 f30=00000000 r31=00000000
clk=0 rst=1 Instruction=00221021 PC=0000001c r1=00000015 r2=00000022 r3=00000028 r4=00000000 r5=00000000 r6=00000000 f1=00000000 f2=00000000 f3=00000000 f4=00000000 f5=00000000 r29=00000000 f30=00000000 r31=00000000
clk=1 rst=1 Instruction=ac622000 PC=00000020 r1=00000015 r2=00000022 r3=00000028 r4=00000000 r5=00000000 r6=00000000 f1=00000000 f2=00000000 f3=00000000 f4=00000000 f5=00000000 r29=00000000 f30=00000000 r31=00000000
clk=0 rst=1 Instruction=ac622000 PC=00000020 r1=00000015 r2=00000022 r3=00000028 r4=00000000 r5=00000000 r6=00000000 f1=00000000 f2=00000000 f3=00000000 f4=00000000 f5=00000000 r29=00000000 f30=00000000 r31=00000000
writing to mem at 00002028 val 00000037 size  3
clk=1 rst=1 Instruction=24630004 PC=00000024 r1=00000037 r2=00000022 r3=00000028 r4=00000000 r5=00000000 r6=00000000 f1=00000000 f2=00000000 f3=00000000 f4=00000000 f5=00000000 r29=00000000 f30=00000000 r31=00000000
clk=0 rst=1 Instruction=24630004 PC=00000024 r1=00000037 r2=00000022 r3=00000028 r4=00000000 r5=00000000 r6=00000000 f1=00000000 f2=00000000 f3=00000000 f4=00000000 f5=00000000 r29=00000000 f30=00000000 r31=00000000
clk=1 rst=1 Instruction=746400b4 PC=00000028 r1=00000037 r2=00000022 r3=00000028 r4=00000000 r5=00000000 r6=00000000 f1=00000000 f2=00000000 f3=00000000 f4=00000000 f5=00000000 r29=00000000 f30=00000000 r31=00000000
clk=0 rst=1 Instruction=746400b4 PC=00000028 r1=00000037 r2=00000022 r3=00000028 r4=00000000 r5=00000000 r6=00000000 f1=00000000 f2=00000000 f3=00000000 f4=00000000 f5=00000000 r29=00000000 f30=00000000 r31=00000000
clk=1 rst=1 Instruction=1080ffe0 PC=0000002c r1=00000037 r2=00000022 r3=0000002c r4=00000000 r5=00000000 r6=00000000 f1=00000000 f2=00000000 f3=00000000 f4=00000000 f5=00000000 r29=00000000 f30=00000000 r31=00000000
clk=0 rst=1 Instruction=1080ffe0 PC=0000002c r1=00000037 r2=00000022 r3=0000002c r4=00000000 r5=00000000 r6=00000000 f1=00000000 f2=00000000 f3=00000000 f4=00000000 f5=00000000 r29=00000000 f30=00000000 r31=00000000
writing to mem at 0000202c val 00000059 size  3
clk=1 rst=1 Instruction=00000015 PC=00000030 r1=00000037 r2=00000059 r3=0000002c r4=00000000 r5=00000000 r6=00000000 f1=00000000 f2=00000000 f3=00000000 f4=00000000 f5=00000000 r29=00000000 f30=00000000 r31=00000000
clk=0 rst=1 Instruction=00000015 PC=00000030 r1=00000037 r2=00000059 r3=0000002c r4=00000000 r5=00000000 r6=00000000 f1=00000000 f2=00000000 f3=00000000 f4=00000000 f5=00000000 r29=00000000 f30=00000000 r31=00000000
